0,23.2667236328125
10,23.2661075592041
20,23.26364517211914
30,23.26419448852539
40,23.263534545898438
50,23.26396369934082
60,23.259597778320312
70,23.25374412536621
80,23.256650924682617
90,23.258140563964844
100,23.255443572998047
110,23.255842208862305
120,23.254100799560547
130,23.25042152404785
140,23.25027847290039
150,23.242084503173828
160,23.240211486816406
170,23.239723205566406
180,23.242708206176758
190,23.242292404174805
200,23.25082778930664
210,23.25948715209961
220,23.256423950195312
230,23.261314392089844
240,23.26464080810547
250,23.262611389160156
260,23.26220703125
270,23.26496696472168
280,23.26602554321289
290,23.2645320892334
