0,0.06660006940364838
10,0.06280430406332016
20,0.061263974756002426
30,0.05716168135404587
40,0.053000662475824356
50,0.046170923858881
60,0.04300754889845848
70,0.03538528457283974
80,0.03234739601612091
90,0.025349358096718788
100,0.025271350517868996
110,0.023514017462730408
120,0.02330576814711094
130,0.021380478516221046
140,0.019245726987719536
150,0.019418831914663315
160,0.02133227325975895
170,0.020594501867890358
180,0.022687872871756554
190,0.02154568023979664
200,0.01761058159172535
210,0.017458248883485794
220,0.015929508954286575
230,0.016088612377643585
240,0.01317591778934002
250,0.012368710711598396
260,0.012360471300780773
270,0.010868723504245281
280,0.011515669524669647
290,0.011627969332039356
